"北海道 ＢＥＳＴ５ (http://www.sakeno.com/ranking_todou/1)"
""
"国士無双  (高砂酒造  [この蔵元のデータ]〒070-0030 北海道 旭川市宮下通17TEL 0166-23-2251 / FAX 0166-22-0973http://www.takasagoshuzo.com/このエリアの銘柄をさらに探す)"
"国稀  (国稀酒造  [この蔵元のデータ]〒077-0204 北海道 増毛郡増毛町稲葉町1-17TEL 0164-53-1050 / FAX 0164-53-2001http://www.kunimare.co.jp/このエリアの銘柄をさらに探す)"
"雪氷室 一夜雫  (高砂酒造  [この蔵元のデータ]〒070-0030 北海道 旭川市宮下通17TEL 0166-23-2251 / FAX 0166-22-0973http://www.takasagoshuzo.com/このエリアの銘柄をさらに探す)"
"男山（北海道）  (男山  [この蔵元のデータ]〒079-8412 北海道 旭川市永山2条7丁目TEL 0166-48-1931 / FAX 0166-48-1910http://www.otokoyama.com/このエリアの銘柄をさらに探す)"
"北の誉  (北の誉酒造  [この蔵元のデータ]〒047-0013 北海道 小樽市奥沢1-21-15TEL 0134-22-2177 / FAX 0134-25-7877http://www.kitanohomare.com/このエリアの銘柄をさらに探す)"
"-------------"
"青森 ＢＥＳＴ５ (http://www.sakeno.com/ranking_todou/2)"
""
"田酒  (西田酒造店  [この蔵元のデータ]〒038-0059 青森県 青森市大字油川字大浜46TEL 017-788-0007 / FAX 017-788-2553http://www.densyu.co.jp/このエリアの銘柄をさらに探す)"
"豊盃  (三浦酒造（青森県）  [この蔵元のデータ]〒036-8316 青森県 弘前市石渡5-1-1TEL 0172-32-1577 / FAX 0172-32-1581http://www.houhai.jp/このエリアの銘柄をさらに探す)"
"陸奥八仙  (八戸酒造  [この蔵元のデータ]〒031-0812 青森県 八戸市湊町本町9TEL 0178-33-1171 / FAX 0178-34-1174http://www.mutsu8000.com/このエリアの銘柄をさらに探す)"
"喜久泉  (西田酒造店  [この蔵元のデータ]〒038-0059 青森県 青森市大字油川字大浜46TEL 017-788-0007 / FAX 017-788-2553http://www.densyu.co.jp/このエリアの銘柄をさらに探す)"
"岩木正宗  (竹浪酒造店  [この蔵元のデータ]〒038-3662 青森県 北津軽郡板柳町板柳字土井113-1TEL 0172-73-2161 / FAX 0172-73-2628このエリアの銘柄をさらに探す)"
"-------------"
"岩手 ＢＥＳＴ５ (http://www.sakeno.com/ranking_todou/3)"
""
"あさ開  (あさ開  [この蔵元のデータ]〒020-0828 岩手県 盛岡市大慈寺町10-34TEL 019-652-3111 / FAX 019-624-4303http://www.asabiraki-net.jp/このエリアの銘柄をさらに探す)"
"南部美人  (南部美人  [この蔵元のデータ]〒028-6101 岩手県 二戸市福岡上町13TEL 0195-23-3133 / FAX 0195-23-4713http://www.nanbubijin.co.jp/このエリアの銘柄をさらに探す)"
"浜千鳥  (浜千鳥  [この蔵元のデータ]〒026-0045 岩手県 釜石市小川町3-8-7TEL 0193-23-5613 / FAX 0193-23-0510http://www.hamachidori.net/このエリアの銘柄をさらに探す)"
"廣喜  (廣田酒造店  [この蔵元のデータ]〒028-3447 岩手県 紫波郡紫波町宮手泉屋敷2-4TEL 019-673-7706 / FAX 019-673-7570http://hiroki.xm.shopserve.jp/このエリアの銘柄をさらに探す)"
"月の輪  (月の輪酒造店  [この蔵元のデータ]〒028-3303 岩手県 紫波郡紫波町高水寺向畑101TEL 019-672-1133 / FAX 019-676-5011http://www.tsukinowa-iwate.com/このエリアの銘柄をさらに探す)"
"-------------"
"秋田 ＢＥＳＴ５ (http://www.sakeno.com/ranking_todou/4)"
""
"新政  (新政酒造  [この蔵元のデータ]〒010-0921 秋田県 秋田市大町6-2-35TEL 018-823-6407 / FAX 018-864-4407http://www.aramasa.jp/このエリアの銘柄をさらに探す)"
"白瀑  (山本  [この蔵元のデータ]〒018-2678 秋田県 山本郡八峰町八森字八森269TEL 0185-77-2311 / FAX 0185-77-2312http://www.shirataki.net/このエリアの銘柄をさらに探す)"
"雪の茅舎  (齋彌酒造店  [この蔵元のデータ]〒015-0011 秋田県 由利本荘市石脇53TEL 0184-22-0536 / FAX 0184-24-4558http://www.yukinobousha.jp/このエリアの銘柄をさらに探す)"
"天の戸  (浅舞酒造  [この蔵元のデータ]〒013-0105 秋田県 横手市平鹿町浅舞字浅舞388TEL 0182-24-1030 / FAX 0182-24-0708http://www.amanoto.co.jp/このエリアの銘柄をさらに探す)"
"高清水  (秋田酒類製造  [この蔵元のデータ]〒010-0934 秋田県 秋田市川元むつみ町4-12TEL 018-864-7331 / FAX 018-863-9379http://www.takashimizu.co.jp/このエリアの銘柄をさらに探す)"
"-------------"
"宮城 ＢＥＳＴ５ (http://www.sakeno.com/ranking_todou/5)"
""
"浦霞  (佐浦  [この蔵元のデータ]〒985-0052 宮城県 塩竈市本町2-19TEL 022-362-4165 / FAX 022-362-7895http://www.urakasumi.com/このエリアの銘柄をさらに探す)"
"日高見  (平孝酒造  [この蔵元のデータ]〒986-0871 宮城県 石巻市清水町1丁目5-3TEL 0225-22-0161 / FAX 0225-96-4456このエリアの銘柄をさらに探す)"
"一ノ蔵  (一ノ蔵  [この蔵元のデータ]〒987-1393 宮城県 大崎市 松山千石字大欅14TEL 0229-55-3322 / FAX 0229-55-4513http://www.ichinokura.co.jp/このエリアの銘柄をさらに探す)"
"墨廼江  (墨廼江酒造  [この蔵元のデータ]〒986-0827 宮城県 石巻市千石町8-43TEL 0225-96-6288 / FAX 0225-96-6290このエリアの銘柄をさらに探す)"
"伯楽星  (新澤醸造店  [この蔵元のデータ]〒989-6321 宮城県 大崎市三本木字北町63TEL 0229-52-3002 / FAX 0229-52-5226このエリアの銘柄をさらに探す)"
"-------------"
"山形 ＢＥＳＴ５ (http://www.sakeno.com/ranking_todou/6)"
""
"十四代  (高木酒造（山形県）  [この蔵元のデータ]〒995-0208 山形県 村山市富並1826TEL 0237-57-2131 / FAX 0237-57-2133このエリアの銘柄をさらに探す)"
"出羽桜  (出羽桜酒造  [この蔵元のデータ]〒994-0044 山形県 天童市一日町1-4-6TEL 023-653-5121 / FAX 023-653-0600http://www.dewazakura.co.jp/このエリアの銘柄をさらに探す)"
"くどき上手  (亀の井酒造（山形県）  [この蔵元のデータ]〒997-0103 山形県 鶴岡市羽黒町戸野福ノ内1TEL 0235-62-2307 / FAX 0235-62-4202このエリアの銘柄をさらに探す)"
"初孫  (東北銘醸  [この蔵元のデータ]〒998-0114 山形県 酒田市十里塚村東山125-3TEL 0234-31-1515 / FAX 0234-31-5588http://www.hatsumago.co.jp/このエリアの銘柄をさらに探す)"
"上喜元  (酒田酒造  [この蔵元のデータ]〒998-0037 山形県 酒田市日吉町2-3-25TEL 0234-22-1541 / FAX 0234-22-1542このエリアの銘柄をさらに探す)"
"-------------"
"福島 ＢＥＳＴ５ (http://www.sakeno.com/ranking_todou/7)"
""
"飛露喜  (廣木酒造本店  [この蔵元のデータ]〒969-6543 福島県 河沼郡会津坂下町市中二番甲3574TEL 0242-83-2104 / FAX 0242-83-4772このエリアの銘柄をさらに探す)"
"大七  (大七酒造  [この蔵元のデータ]〒964-0902 福島県 二本松市竹田1-66TEL 0243-23-0007 / FAX 0243-23-0008http://www.daishichi.com/このエリアの銘柄をさらに探す)"
"奥の松  (奥の松酒造  [この蔵元のデータ]〒964-0866 福島県 二本松市長命69TEL 0243-22-2153 / FAX 0243-22-2011http://www.okunomatsu.co.jp/このエリアの銘柄をさらに探す)"
"国権  (国権酒造  [この蔵元のデータ]〒967-0004 福島県 南会津郡南会津町田島上町甲4037TEL 0241-62-0036 / FAX 0241-62-3878http://www.kokken.co.jp/このエリアの銘柄をさらに探す)"
"天明  (曙酒造  [この蔵元のデータ]〒969-6537 福島県 河沼郡会津坂下町戌亥乙2TEL 0242-83-2065 / FAX 0242-82-3883http://akebono-syuzou.com/このエリアの銘柄をさらに探す)"
"-------------"
"栃木 ＢＥＳＴ５ (http://www.sakeno.com/ranking_todou/8)"
""
"鳳凰美田  (小林酒造（栃木県）  [この蔵元のデータ]〒323-0061 栃木県 小山市卒島743TEL 0285-37-0005 / FAX 0285-37-0807このエリアの銘柄をさらに探す)"
"仙禽  (株式会社せんきん  [この蔵元のデータ]〒329-1321 栃木県 さくら市馬場106TEL 028-681-0011 / FAX 028-682‐0011このエリアの銘柄をさらに探す)"
"天鷹  (天鷹酒造  [この蔵元のデータ]〒324-0411 栃木県 大田原市蛭畑2166TEL 0287-98-2107 / FAX 0287-98-2108http://www.tentaka.co.jp/このエリアの銘柄をさらに探す)"
"松の寿  (松井酒造店  [この蔵元のデータ]〒329-2441 栃木県 塩谷郡塩谷町船生3683TEL 0287-47-0008 / FAX 0287-47-0558http://www.matsunokotobuki.jp/このエリアの銘柄をさらに探す)"
"姿  (飯沼銘醸  [この蔵元のデータ]〒322-0604 栃木県 栃木市西方町元850TEL 0282-92-2005 / FAX 0282-92-8181http://www.cc9.ne.jp/~suginamiki/このエリアの銘柄をさらに探す)"
"-------------"
"群馬 ＢＥＳＴ５ (http://www.sakeno.com/ranking_todou/9)"
""
"尾瀬の雪どけ  (龍神酒造  [この蔵元のデータ]〒374-0065 群馬県 館林市西本町7-13TEL 0276-72-3711 / FAX 0276-72-3968http://www.ryujin.jp/このエリアの銘柄をさらに探す)"
"群馬泉  (島岡酒造  [この蔵元のデータ]〒373-0036 群馬県 太田市由良町375-2TEL 0276-31-2432 / FAX 0276-31-7715このエリアの銘柄をさらに探す)"
"水芭蕉  (永井酒造  [この蔵元のデータ]〒378-0115 群馬県 利根郡川場村門前713TEL 0278-52-2311 / FAX 0278-52-2314http://www.mizubasho.jp/このエリアの銘柄をさらに探す)"
"谷川岳  (永井酒造  [この蔵元のデータ]〒378-0115 群馬県 利根郡川場村門前713TEL 0278-52-2311 / FAX 0278-52-2314http://www.mizubasho.jp/このエリアの銘柄をさらに探す)"
"町田酒造  (町田酒造店（群馬県前橋市）  [この蔵元のデータ]〒379-2122 群馬県 前橋市駒形町65TEL 027-266-0052 / FAX 027-266-0779http://www.seiryo-sake.co.jp/このエリアの銘柄をさらに探す)"
"-------------"
"茨城 ＢＥＳＴ５ (http://www.sakeno.com/ranking_todou/10)"
""
"郷乃誉  (須藤本家  [この蔵元のデータ]〒309-1701 茨城県 笠間市小原2125TEL 0296-77-0152 / FAX 0296-77-0696http://www.sudohonke.co.jp/このエリアの銘柄をさらに探す)"
"来福  (来福酒造  [この蔵元のデータ]〒300-4546 茨城県 筑西市村田1626TEL 0296-52-2448 / FAX 0296-52-6448http://www.raifuku.co.jp/このエリアの銘柄をさらに探す)"
"菊盛  (木内酒造  [この蔵元のデータ]〒311-0133 茨城県 那珂市鴻巣1257TEL 029-298-0105 / FAX 029-295-4580http://www.kodawari.cc/このエリアの銘柄をさらに探す)"
"武勇（茨城県）  (武勇  [この蔵元のデータ]〒307-0001 茨城県 結城市結城144TEL 0296-33-3343 / FAX 0296-33-3368http://www.buyu.jp/このエリアの銘柄をさらに探す)"
"渡舟  (府中誉  [この蔵元のデータ]〒315-0014 茨城県 石岡市国府5-9-32TEL 0299-23-0233 / FAX 0299-23-0234http://www.huchuhomare.com/このエリアの銘柄をさらに探す)"
"-------------"
"埼玉 ＢＥＳＴ５ (http://www.sakeno.com/ranking_todou/11)"
""
"神亀  (神亀酒造  [この蔵元のデータ]〒349-0114 埼玉県 蓮田市馬込3-74TEL 048-768-0115 / FAX 048-768-6182このエリアの銘柄をさらに探す)"
"ひこ孫  (神亀酒造  [この蔵元のデータ]〒349-0114 埼玉県 蓮田市馬込3-74TEL 048-768-0115 / FAX 048-768-6182このエリアの銘柄をさらに探す)"
"琵琶のさゝ浪  (麻原酒造  [この蔵元のデータ]〒350-0451 埼玉県 入間郡毛呂山町毛呂本郷94TEL 049-294-0005 / FAX 049-294-0189http://www.musashino-asahara.jp/このエリアの銘柄をさらに探す)"
"花陽浴  (南陽醸造  [この蔵元のデータ]〒348-0041 埼玉県 羽生市上新郷5951TEL 048-561-0178 / FAX 048-563-1715http://www.nanyo-jozo.com/このエリアの銘柄をさらに探す)"
"越生梅林  (佐藤酒造店（埼玉県）  [この蔵元のデータ]〒350-0405 埼玉県 入間郡越生町津久根141-1TEL 049-292-2058 / FAX 049-292-2034http://www.satoshuzou.co.jp/このエリアの銘柄をさらに探す)"
"-------------"
"千葉 ＢＥＳＴ５ (http://www.sakeno.com/ranking_todou/12)"
""
"五人娘  (寺田本家  [この蔵元のデータ]〒289-0221 千葉県 香取郡神崎町神崎本宿1964TEL 0478-72-2221 / FAX 0478-72-3828http://www.teradahonke.co.jp/このエリアの銘柄をさらに探す)"
"木戸泉  (木戸泉酒造  [この蔵元のデータ]〒298-0004 千葉県 いすみ市大原7635-1TEL 0470-62-0013 / FAX 0470-62-3300http://kidoizumi.jpn.com/このエリアの銘柄をさらに探す)"
"仁勇  (鍋店  [この蔵元のデータ]〒289-0221 千葉県 香取郡神崎町神崎本宿1916TEL 0478-72-2255 / FAX 0478-72-2833http://www.nabedana.co.jp/このエリアの銘柄をさらに探す)"
"甲子正宗  (飯沼本家  [この蔵元のデータ]〒285-0914 千葉県 印旛郡酒々井町馬橋106TEL 043-496-1111 / FAX 043-496-5718http://www.iinumahonke.co.jp/このエリアの銘柄をさらに探す)"
"むすひ  (寺田本家  [この蔵元のデータ]〒289-0221 千葉県 香取郡神崎町神崎本宿1964TEL 0478-72-2221 / FAX 0478-72-3828http://www.teradahonke.co.jp/このエリアの銘柄をさらに探す)"
"-------------"
"東京 ＢＥＳＴ５ (http://www.sakeno.com/ranking_todou/13)"
""
"澤乃井  (小澤酒造  [この蔵元のデータ]〒198-0172 東京都 青梅市沢井2-770TEL 0428-78-8215 / FAX 0428-78-8195http://www.sawanoi-sake.com/このエリアの銘柄をさらに探す)"
"屋守  (豊島屋酒造  [この蔵元のデータ]〒189-0003 東京都 東村山市久米川町3-14-10TEL 042-391-0601 / FAX 042-391-1983http://www.toshimayasyuzou.co.jp/このエリアの銘柄をさらに探す)"
"多満自慢  (石川酒造（東京都）  [この蔵元のデータ]〒197-0003 東京都 福生市熊川1TEL 042-553-0100 / FAX 042-553-2017http://www.tamajiman.com/このエリアの銘柄をさらに探す)"
"嘉泉  (田村酒造場  [この蔵元のデータ]〒197-0011 東京都 福生市福生626TEL 042-551-0003 / FAX 042-553-6021http://www.seishu-kasen.com/このエリアの銘柄をさらに探す)"
"日出山  (中島酒造場  [この蔵元のデータ]〒192-0154 東京都 八王子市下恩方町725TEL 0426-51-3002 / FAX 0426-51-7048http://www.nakajima-sake.co.jp/このエリアの銘柄をさらに探す)"
"-------------"
"神奈川 ＢＥＳＴ５ (http://www.sakeno.com/ranking_todou/14)"
""
"いづみ橋  (泉橋酒造  [この蔵元のデータ]〒243-0435 神奈川県 海老名市下今泉5-5-1TEL 046-231-1338 / FAX 046-233-1452http://www.izumibashi.com/このエリアの銘柄をさらに探す)"
"相模灘  (久保田酒造（神奈川県）  [この蔵元のデータ]〒220-0203 神奈川県 相模原市緑区根小屋702TEL 042-784-0045 / FAX 042-784-2225http://www.tsukui.ne.jp/kubota/このエリアの銘柄をさらに探す)"
"丹沢山  (川西屋酒造店  [この蔵元のデータ]〒258-0113 神奈川県 足柄上郡山北町山北250TEL 0465-75-0009 / FAX 0465-75-0588このエリアの銘柄をさらに探す)"
"隆  (川西屋酒造店  [この蔵元のデータ]〒258-0113 神奈川県 足柄上郡山北町山北250TEL 0465-75-0009 / FAX 0465-75-0588このエリアの銘柄をさらに探す)"
"蓬莱（神奈川県）  (大矢孝酒造  [この蔵元のデータ]〒243-0306 神奈川県 愛甲郡愛川町田代521TEL 046-281-0028 / FAX 046-281-4090http://www.hourai.jp/このエリアの銘柄をさらに探す)"
"-------------"
"山梨 ＢＥＳＴ５ (http://www.sakeno.com/ranking_todou/15)"
""
"春鶯囀  (萬屋醸造店  [この蔵元のデータ]〒400-0501 山梨県 南巨摩郡富士川町青柳町1202-1TEL 0556-22-6931 / FAX 0556-22-6934http://www.shunnoten.co.jp/このエリアの銘柄をさらに探す)"
"七賢  (山梨銘醸  [この蔵元のデータ]〒408-0312 山梨県 北杜市白州町台ヶ原2283TEL 0551-35-2236 / FAX 0551-35-2282http://www.sake-shichiken.co.jp/このエリアの銘柄をさらに探す)"
"笹一  (笹一酒造  [この蔵元のデータ]〒401-0024 山梨県 大月市笹子町吉久保26TEL 0554-25-2111 / FAX 0554-25-2620http://www.sasaichi.co.jp/このエリアの銘柄をさらに探す)"
"谷桜  (谷櫻酒造  [この蔵元のデータ]〒409-1502 山梨県 北杜市大泉町谷戸2037TEL 0551-38-2008 / FAX 0551-38-2199http://www.tanizakura.co.jp/このエリアの銘柄をさらに探す)"
"青煌  (武の井酒造  [この蔵元のデータ]〒408-0012 山梨県 北杜市高根町箕輪1450TEL 0551-47-2277 / FAX 0551-47-2278http://www008.upp.so-net.ne.jp/takenoi/このエリアの銘柄をさらに探す)"
"-------------"
"新潟 ＢＥＳＴ５ (http://www.sakeno.com/ranking_todou/16)"
""
"久保田  (朝日酒造（新潟県）  [この蔵元のデータ]〒949-5494 新潟県 長岡市朝日880-1TEL 0258-92-3181 / FAX 0258-92-4875http://www.asahi-shuzo.co.jp/このエリアの銘柄をさらに探す)"
"〆張鶴  (宮尾酒造  [この蔵元のデータ]〒958-0873 新潟県 村上市上片町5-15TEL 0254-52-5181 / FAX 0254-53-1433http://www.shimeharitsuru.co.jp/このエリアの銘柄をさらに探す)"
"八海山  (八海醸造  [この蔵元のデータ]〒949-7112 新潟県 南魚沼市長森1051TEL 025-775-3866 / FAX 025-775-3714http://www.hakkaisan.co.jp/このエリアの銘柄をさらに探す)"
"菊水  (菊水酒造（新潟県）  [この蔵元のデータ]〒957-0011 新潟県 新発田市島潟750TEL 0254-24-5111 / FAX 0254-23-5255http://www.kikusui-sake.com/このエリアの銘柄をさらに探す)"
"越乃景虎  (諸橋酒造  [この蔵元のデータ]〒940-0241 新潟県 長岡市北荷頃408TEL 0258-52-1151 / FAX 0258-53-6106http://www.morohashi-shuzo.co.jp/このエリアの銘柄をさらに探す)"
"-------------"
"長野 ＢＥＳＴ５ (http://www.sakeno.com/ranking_todou/17)"
""
"真澄  (宮坂醸造  [この蔵元のデータ]〒392-0006 長野県 諏訪市元町1-16TEL 0266-52-6161 / FAX 0266-53-4477http://www.masumi.co.jp/このエリアの銘柄をさらに探す)"
"十九  (尾澤酒造場  [この蔵元のデータ]〒381-2405 長野県 長野市信州新町新町168-1TEL 026-262-2209 / FAX 026-262-4888http://www.misuzunishiki.co.jp/このエリアの銘柄をさらに探す)"
"夜明け前  (小野酒造店（長野県）  [この蔵元のデータ]〒399-0601 長野県 上伊那郡辰野町小野992-1TEL 0266-46-2505 / FAX 0266-46-2751http://yoakemae-ono.com/このエリアの銘柄をさらに探す)"
"明鏡止水  (大澤酒造  [この蔵元のデータ]〒384-2206 長野県 佐久市茂田井2206TEL 0267-53-3100 / FAX 0267-53-3105このエリアの銘柄をさらに探す)"
"大信州  (大信州酒造  [この蔵元のデータ]〒390-0852 長野県 松本市島立2380TEL 0263-47-0895 / FAX 0263-47-8007http://www.daishinsyu.com/このエリアの銘柄をさらに探す)"
"-------------"
"富山 ＢＥＳＴ５ (http://www.sakeno.com/ranking_todou/18)"
""
"満寿泉  (桝田酒造店  [この蔵元のデータ]〒931-8358 富山県 富山市東岩瀬町269TEL 076-437-9916 / FAX 076-438-6763http://www.masuizumi.co.jp/このエリアの銘柄をさらに探す)"
"勝駒  (清都酒造場  [この蔵元のデータ]〒933-0917 富山県 高岡市京町12-12TEL 0766-22-0557 / FAX 0766-25-0557このエリアの銘柄をさらに探す)"
"銀嶺立山  (立山酒造  [この蔵元のデータ]〒939-1322 富山県 砺波市中野217TEL 0763-33-3330 / FAX 0763-33-3585http://tateyamabrewing.jp/このエリアの銘柄をさらに探す)"
"銀盤  (銀盤酒造  [この蔵元のデータ]〒938-0801 富山県 黒部市荻生4853-3TEL 0765-54-1181 / FAX 0765-54-1183http://www.ginban.co.jp/このエリアの銘柄をさらに探す)"
"幻の瀧  (皇国晴酒造  [この蔵元のデータ]〒938-0066 富山県 黒部市生地296TEL 0765-56-8028 / FAX 0765-56-8027http://www.mabotaki.co.jp/このエリアの銘柄をさらに探す)"
"-------------"
"石川 ＢＥＳＴ５ (http://www.sakeno.com/ranking_todou/19)"
""
"天狗舞  (車多酒造  [この蔵元のデータ]〒924-0823 石川県 白山市坊丸町60-1TEL 076-275-1165 / FAX 076-275-1866http://www.tengumai.co.jp/このエリアの銘柄をさらに探す)"
"菊姫  (菊姫  [この蔵元のデータ]〒920-2126 石川県 白山市鶴来新町タ8TEL 076-272-1234 / FAX 076-273-1222http://www.kikuhime.co.jp/このエリアの銘柄をさらに探す)"
"手取川  (吉田酒造店  [この蔵元のデータ]〒924-0843 石川県 白山市安吉町41TEL 076-276-3311 / FAX 076-276-3378http://www.tedorigawa.com/このエリアの銘柄をさらに探す)"
"常きげん  (鹿野酒造  [この蔵元のデータ]〒922-0336 石川県 加賀市八日市町イ6TEL 0761-74-1551 / FAX 0761-74-6120http://www.jokigen.co.jp/このエリアの銘柄をさらに探す)"
"加賀鳶  (福光屋  [この蔵元のデータ]〒920-8638 石川県 金沢市石引2-8-3TEL 076-223-1161 / FAX 076-222-3769http://www.fukumitsuya.co.jp/このエリアの銘柄をさらに探す)"
"-------------"
"福井 ＢＥＳＴ５ (http://www.sakeno.com/ranking_todou/20)"
""
"黒龍  (黒龍酒造  [この蔵元のデータ]〒910-1133 福井県 吉田郡永平寺町松岡春日1-38TEL 0776-61-0038 / FAX 0776-61-1279http://www.kokuryu.co.jp/このエリアの銘柄をさらに探す)"
"梵  (加藤吉平商店  [この蔵元のデータ]〒916-0001 福井県 鯖江市吉江町1-11TEL 0778-51-1507 / FAX 0778-53-1406http://www.born.co.jp/このエリアの銘柄をさらに探す)"
"白岳仙  (安本酒造  [この蔵元のデータ]〒910-2167 福井県 福井市安原町7-4TEL 0776-41-0011 / FAX 0776-41-0012http://www.yasumoto-shuzo.jp/このエリアの銘柄をさらに探す)"
"早瀬浦  (三宅彦右衛門酒造  [この蔵元のデータ]〒919-1124 福井県 三方郡美浜町早瀬21-7TEL 0770-32-0303 / FAX 0770-32-0304このエリアの銘柄をさらに探す)"
"伝心  (一本義久保本店  [この蔵元のデータ]〒911-0801 福井県 勝山市 沢町1-3-1TEL 0779-87-2500 / FAX 0779-87-2504http://www.ippongi.co.jp/このエリアの銘柄をさらに探す)"
"-------------"
"静岡 ＢＥＳＴ５ (http://www.sakeno.com/ranking_todou/21)"
""
"臥龍梅  (三和酒造  [この蔵元のデータ]〒424-0038 静岡県 静岡市清水区西久保501-10TEL 054-366-0839 / FAX 054-366-0380http://www.garyubai.com/このエリアの銘柄をさらに探す)"
"磯自慢  (磯自慢酒造  [この蔵元のデータ]〒425-0032 静岡県 焼津市鰯ヶ島307TEL 054-628-2204 / FAX 054-629-7129http://www.isojiman-sake.jp/このエリアの銘柄をさらに探す)"
"開運  (土井酒造場  [この蔵元のデータ]〒437-1407 静岡県 掛川市小貫633TEL 0537-74-2006 / FAX 0537-74-4077http://www.kaiunsake.com/このエリアの銘柄をさらに探す)"
"初亀  (初亀醸造  [この蔵元のデータ]〒421-1121 静岡県 藤枝市岡部町岡部744TEL 054-667-2222 / FAX 054-667-3170このエリアの銘柄をさらに探す)"
"喜久酔  (青島酒造  [この蔵元のデータ]〒426-0036 静岡県 藤枝市上青島246TEL 054-641-5533 / FAX 054-644-3156このエリアの銘柄をさらに探す)"
"-------------"
"岐阜 ＢＥＳＴ５ (http://www.sakeno.com/ranking_todou/22)"
""
"三千盛  (三千盛  [この蔵元のデータ]〒507-0901 岐阜県 多治見市笠原町2919TEL 0572-43-3181 / FAX 0572-43-3183http://www.michisakari.com/このエリアの銘柄をさらに探す)"
"醴泉  (玉泉堂酒造  [この蔵元のデータ]〒503-1314 岐阜県 養老郡養老町高田800-3TEL 0584-32-1155 / FAX 0584-32-2190http://www.minogiku.co.jp/このエリアの銘柄をさらに探す)"
"小左衛門  (中島醸造  [この蔵元のデータ]〒509-6101 岐阜県 瑞浪市土岐町7181-1TEL 0572-68-3151 / FAX 0572-68-3152http://www.kozaemon.jp/このエリアの銘柄をさらに探す)"
"奥飛騨  (奥飛騨酒造  [この蔵元のデータ]〒509-1622 岐阜県 下呂市金山町金山1984TEL 0576-32-2033 / FAX 0576-32-3328http://www.okuhida.co.jp/このエリアの銘柄をさらに探す)"
"達磨正宗  (白木恒助商店  [この蔵元のデータ]〒501-2528 岐阜県 岐阜市門屋門61TEL 058-229-1008 / FAX 058-229-1010http://www.daruma-masamune.co.jp/このエリアの銘柄をさらに探す)"
"-------------"
"愛知 ＢＥＳＴ５ (http://www.sakeno.com/ranking_todou/23)"
""
"醸し人九平次  (萬乗醸造  [この蔵元のデータ]〒459-8001 愛知県 名古屋市緑区大高町西門田41TEL 052-621-2185 / FAX 052-621-2186http://kuheiji.co.jp/このエリアの銘柄をさらに探す)"
"蓬莱泉  (関谷醸造  [この蔵元のデータ]〒441-2301 愛知県 北設楽郡設楽町田口字町浦22TEL 0536-62-0505 / FAX 0536-62-1556http://www.houraisen.co.jp/このエリアの銘柄をさらに探す)"
"義侠  (山忠本家酒造  [この蔵元のデータ]〒496-0906 愛知県 愛西市日置町弐橋1797-3TEL 0567-28-2247 / FAX 0567-26-4846このエリアの銘柄をさらに探す)"
"奥  (山崎合資  [この蔵元のデータ]〒444-0703 愛知県 西尾市西幡豆町柿田57TEL 0563-62-2005 / FAX 0563-62-4374http://www.sonnoh.co.jp/このエリアの銘柄をさらに探す)"
"長珍  (長珍酒造  [この蔵元のデータ]〒496-0805 愛知県 津島市本町3-62TEL 0567-26-3319 / FAX 0567-26-3460http://nihonshu.exblog.jp/このエリアの銘柄をさらに探す)"
"-------------"
"三重 ＢＥＳＴ５ (http://www.sakeno.com/ranking_todou/24)"
""
"三重錦  (中井酒造場  [この蔵元のデータ]〒518-0878 三重県 伊賀市上野西大手町3721TEL 0595-21-0010 / FAX 0595-24-5473このエリアの銘柄をさらに探す)"
"作  (清水醸造  [この蔵元のデータ]〒510-0225 三重県 鈴鹿市若松東3-9-33TEL 059-385-0011 / FAX 059-385-0511http://suzukagawa.com/このエリアの銘柄をさらに探す)"
"るみ子の酒  (森喜酒造場  [この蔵元のデータ]〒518-0002 三重県 伊賀市千歳41-2TEL 0595-23-3040 / FAX 0595-24-5735http://homepage3.nifty.com/moriki/このエリアの銘柄をさらに探す)"
"義左衛門  (若戎酒造  [この蔵元のデータ]〒518-0226 三重県 伊賀市阿保1317TEL 0595-52-1153 / FAX 0595-52-2141http://www.wakaebis.co.jp/このエリアの銘柄をさらに探す)"
"上げ馬  (細川酒造  [この蔵元のデータ]〒511-0122 三重県 桑名市多度町古野1474TEL 0594-48-4390 / FAX 0594-48-5948http://www.ji-beer.co.jp/このエリアの銘柄をさらに探す)"
"-------------"
"滋賀 ＢＥＳＴ５ (http://www.sakeno.com/ranking_todou/25)"
""
"大治郎  (畑酒造  [この蔵元のデータ]〒527-0091 滋賀県 東近江市小脇町1410TEL 0748-22-0332 / FAX 0748-23-5689このエリアの銘柄をさらに探す)"
"不老泉  (上原酒造（滋賀県）  [この蔵元のデータ]〒520-1512 滋賀県 高島市新旭町太田1524TEL 0740-25-2075 / FAX 0740-25-5463http://www.ex.biwa.ne.jp/~furo-sen/このエリアの銘柄をさらに探す)"
"松の司  (松瀬酒造  [この蔵元のデータ]〒520-2501 滋賀県 蒲生郡竜王町弓削475TEL 0748-58-0009 / FAX 0748-58-0194http://matsunotsukasa.com/このエリアの銘柄をさらに探す)"
"七本槍  (冨田酒造  [この蔵元のデータ]〒529-0425 滋賀県 長浜市木之本町木之本1107TEL 0749-82-2013 / FAX 0749-82-5507http://www.7yari.co.jp/このエリアの銘柄をさらに探す)"
"笑四季  (笑四季酒造  [この蔵元のデータ]〒528-0031 滋賀県 甲賀市水口町本町1-7-8TEL 0748-62-0007 / FAX 0748-62-9545http://www.emishiki.com/このエリアの銘柄をさらに探す)"
"-------------"
"京都 ＢＥＳＴ５ (http://www.sakeno.com/ranking_todou/26)"
""
"玉乃光  (玉乃光酒造  [この蔵元のデータ]〒612-8066 京都府 京都市伏見区東堺町545-2TEL 075-611-5000 / FAX 075-601-0004http://www.tamanohikari.co.jp/このエリアの銘柄をさらに探す)"
"英勲  (齊藤酒造  [この蔵元のデータ]〒612-8207 京都府 京都市伏見区横大路三栖山城屋敷町7TEL 075-611-2124 / FAX 075-602-8331http://www.eikun.com/このエリアの銘柄をさらに探す)"
"松竹梅  (宝酒造  [この蔵元のデータ]〒600-8688 京都府 京都市下京区長刀鉾町20四条烏丸ＦＴスクエア（四条通烏丸東入）TEL 075-241-5110 / FAX 075-211-6385http://www.takarashuzo.co.jp/このエリアの銘柄をさらに探す)"
"蒼空  (藤岡酒造  [この蔵元のデータ]〒612-8051 京都府 京都市伏見区今町672-1TEL 075-611-4666 / FAX 075-611-4343http://www.sookuu.net/このエリアの銘柄をさらに探す)"
"玉川（京都府）  (木下酒造  [この蔵元のデータ]〒629-3442 京都府 京丹後市久美浜町甲山1512TEL 0772-82-0071 / FAX 0772-82-1770http://www.sake-tamagawa.com/このエリアの銘柄をさらに探す)"
"-------------"
"奈良 ＢＥＳＴ５ (http://www.sakeno.com/ranking_todou/27)"
""
"風の森  (油長酒造  [この蔵元のデータ]〒639-2200 奈良県 御所市中本町1160番地TEL 0745-62-2047 / FAX 0745-62-3400http://www.yucho-sake.jp/このエリアの銘柄をさらに探す)"
"梅乃宿  (梅乃宿酒造  [この蔵元のデータ]〒639-2102 奈良県 葛城市東室27TEL 0745-69-2121 / FAX 0745-69-2122http://www.umenoyado.com/このエリアの銘柄をさらに探す)"
"百楽門（百樂門）  (葛城酒造  [この蔵元のデータ]〒639-2321 奈良県 御所市名柄347番地TEL 0745-66-1141 / FAX 0745-66-1548http://www.hyakurakumon.com/このエリアの銘柄をさらに探す)"
"篠峯  (千代酒造  [この蔵元のデータ]〒639-2312 奈良県 御所市櫛羅621TEL 0745-62-2301 / FAX 0745-62-0127http://www.chiyoshuzo.co.jp/このエリアの銘柄をさらに探す)"
"春鹿  (今西清兵衛商店  [この蔵元のデータ]〒630-8381 奈良県 奈良市福智院町24-1TEL 0742-23-2255 / FAX 0742-27-3585http://www.harushika.com/このエリアの銘柄をさらに探す)"
"-------------"
"大阪 ＢＥＳＴ５ (http://www.sakeno.com/ranking_todou/28)"
""
"秋鹿  (秋鹿酒造  [この蔵元のデータ]〒563-0113 大阪府 豊能郡能勢町倉垣1007TEL 072-737-0013 / FAX 072-737-0840このエリアの銘柄をさらに探す)"
"呉春  (呉春  [この蔵元のデータ]〒563-0051 大阪府 池田市綾羽1-2-2TEL 072-751-2023このエリアの銘柄をさらに探す)"
"天野酒  (西條  [この蔵元のデータ]〒586-0014 大阪府 河内長野市長野町12-18TEL 0721-55-1101 / FAX 0721-56-1101http://www.amanosake.com/このエリアの銘柄をさらに探す)"
"片野桜  (山野酒造  [この蔵元のデータ]〒576-0052 大阪府 交野市私部7-11-2TEL 072-891-1046 / FAX 072-891-1846http://www.katanosakura.com/このエリアの銘柄をさらに探す)"
"利休梅  (大門酒造  [この蔵元のデータ]〒576-0031 大阪府 交野市森南3-12-1TEL 072-891-0353 / FAX 072-891-0354http://www.sakahan.com/このエリアの銘柄をさらに探す)"
"-------------"
"兵庫 ＢＥＳＴ５ (http://www.sakeno.com/ranking_todou/29)"
""
"剣菱  (剣菱酒造  [この蔵元のデータ]〒658-0046 兵庫県 神戸市東灘区御影本町3-12-5TEL 078-451-2501http://www.kenbishi.co.jp/このエリアの銘柄をさらに探す)"
"龍力  (本田商店  [この蔵元のデータ]〒671-1226 兵庫県 姫路市網干区高田361-1TEL 079-273-0151 / FAX 079-274-2454http://www.taturiki.com/このエリアの銘柄をさらに探す)"
"富久錦  (富久錦  [この蔵元のデータ]〒675-2223 兵庫県 加西市三口町1048TEL 0790-48-2111 / FAX 0790-48-2288http://www.fukunishiki.co.jp/このエリアの銘柄をさらに探す)"
"小鼓  (西山酒造場  [この蔵元のデータ]〒669-4302 兵庫県 丹波市市島町中竹田1171TEL 0795-86-0331 / FAX 0795-86-0202http://www.kotsuzumi.co.jp/このエリアの銘柄をさらに探す)"
"沢の鶴  (沢の鶴  [この蔵元のデータ]〒657-0864 兵庫県 神戸市灘区新在家南町5-1-2TEL 078-881-1234 / FAX 078-861-0005http://www.sawanotsuru.co.jp/このエリアの銘柄をさらに探す)"
"-------------"
"和歌山 ＢＥＳＴ５ (http://www.sakeno.com/ranking_todou/30)"
""
"黒牛  (名手酒造店  [この蔵元のデータ]〒642-0011 和歌山県 海南市黒江846TEL 073-482-0005 / FAX 073-483-3456http://www.kuroushi.com/このエリアの銘柄をさらに探す)"
"紀土 KID  (平和酒造（和歌山県）  [この蔵元のデータ]〒640-1172 和歌山県 海南市溝ノ口119TEL 0734-87-0189 / FAX 073-487-4641http://www.heiwashuzou.co.jp/このエリアの銘柄をさらに探す)"
"雑賀  (雑賀豊太郎商店  [この蔵元のデータ]〒640-8342 和歌山県 和歌山市友田町4-76TEL 073-423-1285 / FAX 073-432-5383このエリアの銘柄をさらに探す)"
"車坂  (吉村秀雄商店  [この蔵元のデータ]〒649-6244 和歌山県 岩出市畑毛72番地TEL 0736-62-2121 / FAX 0736-62-4457http://www.nihonsyu-nihonjyou.co.jp/このエリアの銘柄をさらに探す)"
"羅生門  (田端酒造  [この蔵元のデータ]〒640-8328 和歌山県 和歌山市木広町5-2-15TEL 073-424-7121 / FAX 073-431-9435http://www.rashomon-kuramoto.co.jp/このエリアの銘柄をさらに探す)"
"-------------"
"岡山 ＢＥＳＴ５ (http://www.sakeno.com/ranking_todou/31)"
""
"酒一筋  (利守酒造  [この蔵元のデータ]〒701-2215 岡山県 赤磐市西軽部762-1TEL 086-957-3117 / FAX 086-957-3790http://www.sakehitosuji.co.jp/このエリアの銘柄をさらに探す)"
"御前酒  (辻本店  [この蔵元のデータ]〒717-0013 岡山県 真庭市勝山116TEL 0867-44-3155 / FAX 0867-44-5290http://www.gozenshu.co.jp/このエリアの銘柄をさらに探す)"
"嘉美心  (嘉美心酒造  [この蔵元のデータ]〒714-0101 岡山県 浅口市寄島町7500-2TEL 0865-54-3101 / FAX 0865-54-3105http://www.kamikokoro.co.jp/このエリアの銘柄をさらに探す)"
"三光正宗  (三光正宗  [この蔵元のデータ]〒719-3702 岡山県 新見市哲西町上神代951TEL 0867-94-3131 / FAX 0867-94-3200http://www.sake-sanko.co.jp/このエリアの銘柄をさらに探す)"
"櫻室町  (室町酒造  [この蔵元のデータ]〒709-0835 岡山県 赤磐市西中1342-1TEL 086-955-0029 / FAX 086-955-6887http://www.sakuramuromachi.co.jp/このエリアの銘柄をさらに探す)"
"-------------"
"広島 ＢＥＳＴ５ (http://www.sakeno.com/ranking_todou/32)"
""
"龍勢  (藤井酒造（広島県）  [この蔵元のデータ]〒725-0022 広島県 竹原市本町3丁目4-14TEL 0846-22-2029 / FAX 0846-22-8241http://www.fujiishuzou.com/このエリアの銘柄をさらに探す)"
"竹鶴  (竹鶴酒造  [この蔵元のデータ]〒725-0022 広島県 竹原市本町3丁目10-29TEL 0846-22-2021 / FAX 0846-22-2344このエリアの銘柄をさらに探す)"
"幻  (中尾醸造  [この蔵元のデータ]〒725-0026 広島県 竹原市中央5-9-14TEL 0846-22-2035 / FAX 0846-22-8515http://www.maboroshi.co.jp/このエリアの銘柄をさらに探す)"
"雨後の月  (相原酒造  [この蔵元のデータ]〒737-0152 広島県 呉市仁方本町1-25-15TEL 0823-79-5008 / FAX 0823-79-6247http://www.ugonotsuki.com/このエリアの銘柄をさらに探す)"
"富久長  (今田酒造本店  [この蔵元のデータ]〒729-2402 広島県 東広島市安芸津町三津3734TEL 0846-45-0003 / FAX 0846-45-3712http://fukucho.info/このエリアの銘柄をさらに探す)"
"-------------"
"鳥取 ＢＥＳＴ５ (http://www.sakeno.com/ranking_todou/33)"
""
"鷹勇  (大谷酒造  [この蔵元のデータ]〒689-2352 鳥取県 東伯郡琴浦町浦安368TEL 0858-53-0111 / FAX 0858-53-0112http://www.takaisami.co.jp/このエリアの銘柄をさらに探す)"
"日置桜  (山根酒造場  [この蔵元のデータ]〒689-0518 鳥取県 鳥取市青谷町大坪249TEL 0857-85-0730 / FAX 0857-85-0465http://www.hiokizakura.jp/このエリアの銘柄をさらに探す)"
"千代むすび  (千代むすび酒造  [この蔵元のデータ]〒684-0004 鳥取県 境港市大正町131TEL 0859-42-3191 / FAX 0859-42-3515http://www.chiyomusubi.co.jp/このエリアの銘柄をさらに探す)"
"諏訪泉  (諏訪酒造  [この蔵元のデータ]〒689-1402 鳥取県 八頭郡智頭町智頭451TEL 0858-75-0618 / FAX 0858-75-3082http://suwaizumi.jp/このエリアの銘柄をさらに探す)"
"弁天娘  (太田酒造場  [この蔵元のデータ]〒680-0701 鳥取県 八頭郡若桜町若桜1223-2TEL 0858-82-0611 / FAX 0858-82-0612http://www1.ocn.ne.jp/~bentenmu/このエリアの銘柄をさらに探す)"
"-------------"
"島根 ＢＥＳＴ５ (http://www.sakeno.com/ranking_todou/34)"
""
"王祿  (王祿酒造  [この蔵元のデータ]〒699-0101 島根県 松江市東出雲町揖屋484TEL 0852-52-2010 / FAX 0852-52-2011http://www.ouroku.com/このエリアの銘柄をさらに探す)"
"李白  (李白酒造  [この蔵元のデータ]〒690-0881 島根県 松江市石橋町335TEL 0852-26-5555 / FAX 0852-26-5557http://www.rihaku.co.jp/このエリアの銘柄をさらに探す)"
"出雲富士  (富士酒造  [この蔵元のデータ]〒693-0001 島根県 出雲市今市町1403TEL 0853-21-1510 / FAX 0853-21-1584http://www.izumofuji.com/このエリアの銘柄をさらに探す)"
"開春  (若林酒造  [この蔵元のデータ]〒699-2511 島根県 大田市温泉津町小浜ロ73TEL 0855-65-2007 / FAX 0855-65-3549http://www.kaishun.co.jp/このエリアの銘柄をさらに探す)"
"ヤマサン正宗  (酒持田本店  [この蔵元のデータ]〒691-0001 島根県 出雲市平田町785TEL 0853-62-2023 / FAX 0853-62-2075http://www.sakemochida.jp/このエリアの銘柄をさらに探す)"
"-------------"
"山口 ＢＥＳＴ５ (http://www.sakeno.com/ranking_todou/35)"
""
"獺祭  (旭酒造（山口県）  [この蔵元のデータ]〒742-0422 山口県 岩国市周東町獺越2167-4TEL 0827-86-0120 / FAX 0827-86-0071http://asahishuzo.ne.jp/このエリアの銘柄をさらに探す)"
"雁木  (八百新酒造  [この蔵元のデータ]〒740-0017 山口県 岩国市今津町3-18-9TEL 0827‐21‐3185 / FAX 0827‐21‐3186http://www.yaoshin.co.jp/このエリアの銘柄をさらに探す)"
"貴  (永山本家酒造場  [この蔵元のデータ]〒759-0133 山口県 宇部市車地138TEL 0836-62-0088 / FAX 0836-62-0509このエリアの銘柄をさらに探す)"
"東洋美人  (澄川酒造場  [この蔵元のデータ]〒759-3203 山口県 萩市中小川611TEL 0838-74-0001 / FAX 0838-74-0003このエリアの銘柄をさらに探す)"
"五橋  (酒井酒造  [この蔵元のデータ]〒740-0021 山口県 岩国市中津町1-1-31TEL 0827-21-2177 / FAX 0827-21-5372http://www.gokyo-sake.co.jp/このエリアの銘柄をさらに探す)"
"-------------"
"香川 ＢＥＳＴ５ (http://www.sakeno.com/ranking_todou/36)"
""
"悦凱陣  (丸尾本店  [この蔵元のデータ]〒766-0004 香川県 仲多度郡琴平町榎井93TEL 0877-75-2045 / FAX 0877-75-2116このエリアの銘柄をさらに探す)"
"川鶴  (川鶴酒造  [この蔵元のデータ]〒768-0022 香川県 観音寺市本大町836TEL 0875-25-0001 / FAX 0875-25-2487このエリアの銘柄をさらに探す)"
"金陵  (西野金陵  [この蔵元のデータ]〒766-0001 香川県 仲多度郡琴平町623番地TEL 0877-73-4133 / FAX 0877-33-4139http://www.nishino-kinryo.co.jp/このエリアの銘柄をさらに探す)"
"綾菊  (綾菊酒造  [この蔵元のデータ]〒761-2204 香川県 綾歌郡綾川町山田下3393-1TEL 087-878-2222 / FAX 087-878-1655http://www.ayakiku.com/このエリアの銘柄をさらに探す)"
"国粋  (岡田酒造  [この蔵元のデータ]〒761-2402 香川県 丸亀市綾歌町岡田下499-1TEL 0877-86-3012 / FAX 0877-86-3012http://ww82.tiki.ne.jp/~kokusui/このエリアの銘柄をさらに探す)"
"-------------"
"愛媛 ＢＥＳＴ５ (http://www.sakeno.com/ranking_todou/37)"
""
"梅錦  (梅錦山川  [この蔵元のデータ]〒799-0194 愛媛県 四国中央市 金田町金川14TEL 0896-58-1211 / FAX 0896-58-3171http://www.umenishiki.com/このエリアの銘柄をさらに探す)"
"石鎚  (石鎚酒造  [この蔵元のデータ]〒793-0073 愛媛県 西条市氷見丙402-3TEL 0897-57-8000 / FAX 0897-57-8811http://www.ishizuchi.co.jp/このエリアの銘柄をさらに探す)"
"初雪盃  (協和酒造  [この蔵元のデータ]〒791-2132 愛媛県 伊予郡砥部町大南400番地TEL 089-962-2717 / FAX 089-962-7788http://www.hatsuyukihai.jp/このエリアの銘柄をさらに探す)"
"梅美人  (梅美人酒造  [この蔵元のデータ]〒796-0051 愛媛県 八幡浜市1557-2TEL 0894-22-0312 / FAX 0894-22-0712http://www.ume-bijin.co.jp/このエリアの銘柄をさらに探す)"
"賀儀屋  (成龍酒造  [この蔵元のデータ]〒799-1371 愛媛県 西条市周布1301-1TEL 0898-68-7041 / FAX 0898-68-7103http://www.seiryosyuzo.com/このエリアの銘柄をさらに探す)"
"-------------"
"徳島 ＢＥＳＴ５ (http://www.sakeno.com/ranking_todou/38)"
""
"三芳菊  (三芳菊酒造  [この蔵元のデータ]〒778-0003 徳島県 三好市池田町サラダ1661TEL 0883-72-0053 / FAX 0883-72-1158http://www.miyoshikiku.co.jp/このエリアの銘柄をさらに探す)"
"鳴門鯛  (本家松浦酒造場  [この蔵元のデータ]〒779-0303 徳島県 鳴門市大麻町池谷字柳ノ本19TEL 088-689-1110 / FAX 088-689-1109http://www.shumurie.co.jp/このエリアの銘柄をさらに探す)"
"旭若松  (那賀酒造  [この蔵元のデータ]〒771-5201 徳島県 那賀郡那賀町和食字町35TEL 0884-62-2003 / FAX 0884-62-2762このエリアの銘柄をさらに探す)"
"芳水  (芳水酒造  [この蔵元のデータ]〒779-4801 徳島県 三好市井川町辻231-2TEL 0883-78-2014 / FAX 0883-78-4198http://www.housui.com/このエリアの銘柄をさらに探す)"
"高柿木  (芳水酒造  [この蔵元のデータ]〒779-4801 徳島県 三好市井川町辻231-2TEL 0883-78-2014 / FAX 0883-78-4198http://www.housui.com/このエリアの銘柄をさらに探す)"
"-------------"
"高知 ＢＥＳＴ５ (http://www.sakeno.com/ranking_todou/39)"
""
"南  (南酒造場  [この蔵元のデータ]〒781-6421 高知県 安芸郡安田町安田1875TEL 0887-38-6811 / FAX 0887-38-6812このエリアの銘柄をさらに探す)"
"酔鯨  (酔鯨酒造  [この蔵元のデータ]〒781-0270 高知県 高知市長浜566TEL 088-841-4080 / FAX 088-841-3290http://www.suigei.jp/このエリアの銘柄をさらに探す)"
"美丈夫  (浜川商店  [この蔵元のデータ]〒781-6410 高知県 安芸郡田野町2150TEL 0887-38-2004 / FAX 0887-38-8284http://www.bijofu.jp/このエリアの銘柄をさらに探す)"
"亀泉  (亀泉酒造  [この蔵元のデータ]〒781-1142 高知県 土佐市出間2123-1TEL 088-854-0811 / FAX 088-854-0813http://www.kameizumi.co.jp/このエリアの銘柄をさらに探す)"
"司牡丹  (司牡丹酒造  [この蔵元のデータ]〒789-1201 高知県 高岡郡佐川町甲1299TEL 0889-22-1211 / FAX 0889-22-4116http://www.tsukasabotan.co.jp/このエリアの銘柄をさらに探す)"
"-------------"
"福岡 ＢＥＳＴ５ (http://www.sakeno.com/ranking_todou/40)"
""
"庭のうぐいす  (山口酒造場  [この蔵元のデータ]〒830-1122 福岡県 久留米市北野町今山534-1TEL 0942-78-2008 / FAX 0942-78-5233http://www.niwanouguisu.com/このエリアの銘柄をさらに探す)"
"三井の寿  (井上合名  [この蔵元のデータ]〒830-1214 福岡県 三井郡大刀洗町栄田1067-2TEL 0942-77-0019 / FAX 0942-77-2194このエリアの銘柄をさらに探す)"
"繁桝  (高橋商店  [この蔵元のデータ]〒834-0031 福岡県 八女市大字本町2-22-1TEL 0943-23-5101 / FAX 0943-22-2344http://www.shigemasu.co.jp/このエリアの銘柄をさらに探す)"
"駿  (いそのさわ  [この蔵元のデータ]〒816-0094 福岡県 福岡市博多区諸岡3丁目1番3号TEL 092-581-4137 / FAX 092-581-4163http://www.yushun.net/このエリアの銘柄をさらに探す)"
"綾花  (旭菊酒造  [この蔵元のデータ]〒830-0116 福岡県 久留米市三潴町壱町原403TEL 0942-64-2003 / FAX 0942-64-2403http://www.asahigiku.com/このエリアの銘柄をさらに探す)"
"-------------"
"佐賀 ＢＥＳＴ５ (http://www.sakeno.com/ranking_todou/41)"
""
"鍋島  (富久千代酒造  [この蔵元のデータ]〒849-1322 佐賀県 鹿島市浜町1244TEL 09546-2-3727 / FAX 09546-2-6638http://nabeshima-saga.com/このエリアの銘柄をさらに探す)"
"東一  (五町田酒造  [この蔵元のデータ]〒849-1425 佐賀県 嬉野市塩田町五町田甲2081TEL 0954-66-2066 / FAX 0954-66-5470http://www.azumaichi.com/このエリアの銘柄をさらに探す)"
"七田  (天山酒造  [この蔵元のデータ]〒845-0003 佐賀県 小城市小城町岩蔵1520TEL 0952-73-3141 / FAX 0952-72-7695http://www.tenzan.co.jp/このエリアの銘柄をさらに探す)"
"能古見  (馬場酒造場  [この蔵元のデータ]〒849-1315 佐賀県 鹿島市三河内乙1365TEL 0954-63-3888 / FAX 0954-63-3889http://www.nogomi.co.jp/このエリアの銘柄をさらに探す)"
"天山  (天山酒造  [この蔵元のデータ]〒845-0003 佐賀県 小城市小城町岩蔵1520TEL 0952-73-3141 / FAX 0952-72-7695http://www.tenzan.co.jp/このエリアの銘柄をさらに探す)"
"-------------"
"長崎 ＢＥＳＴ５ (http://www.sakeno.com/ranking_todou/42)"
""
"六十餘洲  (今里酒造  [この蔵元のデータ]〒859-3715 長崎県 東彼杵郡波佐見町宿郷596TEL 0956-85-2002 / FAX 0956-85-4480http://www.64sake.com/このエリアの銘柄をさらに探す)"
"福鶴  (福田酒造  [この蔵元のデータ]〒859-5533 長崎県 平戸市志々伎町1475TEL 0950-27-1111 / FAX 0950-27-0320http://www.fukuda-shuzo.com/このエリアの銘柄をさらに探す)"
"ふるさと讃歌  (潜龍酒造  [この蔵元のデータ]〒859-6101 長崎県 北松浦郡江迎町長坂209TEL 0956-65-2209 / FAX 0956-65-2404http://www.sake-honjin.com/このエリアの銘柄をさらに探す)"
"-------------"
"大分 ＢＥＳＴ５ (http://www.sakeno.com/ranking_todou/43)"
""
"西の関  (萱島酒造  [この蔵元のデータ]〒873-0513 大分県 国東市国東町綱井392-1TEL 0978-72-1181 / FAX 0978-72-1182http://www.nishinoseki.com/このエリアの銘柄をさらに探す)"
"鷹来屋  (浜嶋酒造  [この蔵元のデータ]〒879-6643 大分県 豊後大野市緒方町下自在381TEL 0974-42-2216 / FAX 0974-42-3090http://www.takakiya.co.jp/このエリアの銘柄をさらに探す)"
"千羽鶴  (佐藤酒造（大分県）  [この蔵元のデータ]〒878-0201 大分県 竹田市久住町久住6197TEL 0974-76-0004 / FAX 0974-76-0005このエリアの銘柄をさらに探す)"
"一の井手  (久家本店  [この蔵元のデータ]〒875-0023 大分県 臼杵市江無田382TEL 0972-63-8000 / FAX 0972-63-8022http://www.ichinoide.co.jp/このエリアの銘柄をさらに探す)"
"智恵美人  (中野酒造（大分県）  [この蔵元のデータ]〒873-0002 大分県 杵築市南杵築2487-1TEL 0978-62-2109 / FAX 0978-63-4160http://www.nakanosyuzou.jp/このエリアの銘柄をさらに探す)"
"-------------"
"熊本 ＢＥＳＴ５ (http://www.sakeno.com/ranking_todou/44)"
""
"れいざん  (山村酒造  [この蔵元のデータ]〒869-1602 熊本県 阿蘇郡高森町高森1645TEL 0967-62-0001 / FAX 0967-62-1820http://www.reizan.com/このエリアの銘柄をさらに探す)"
"香露  (熊本県酒造研究所  [この蔵元のデータ]〒860-0073 熊本県 熊本市島崎1-7-20TEL 096-352-4921 / FAX 096-352-4949このエリアの銘柄をさらに探す)"
"美少年  (美少年  [この蔵元のデータ]〒861-4203 熊本県 熊本市南区城南町隈庄401TEL 0964-28-2111 / FAX 0964-28-2500http://bishonen.co.jp/このエリアの銘柄をさらに探す)"
"千代の園  (千代の園酒造  [この蔵元のデータ]〒861-0501 熊本県 山鹿市山鹿1782TEL 0968-43-2161 / FAX 0968-44-7300http://www.chiyonosono.co.jp/このエリアの銘柄をさらに探す)"
"瑞鷹  (瑞鷹酒造  [この蔵元のデータ]〒861-4191 熊本県 熊本市川尻4-6-67TEL 096-357-9671 / FAX 096-357-8963http://www.zuiyo.co.jp/このエリアの銘柄をさらに探す)"
"-------------"
"-------------"
"-------------"
"-------------"
